{
    "request": {
        "userPoolId": "testID",
        "userName": "testUser",
        "userAttributes": {
            "email": "user@example.com",
            "email_verified": true
          }
    },
    "response": {}
}